rank,last,first,middle,title,subject,email,ext,category
1,Miramontes,Ramón,,Presidente,,ramon,300,Administración
2,Salas,Jose,D,Directo,,jsalas,205,Administración
3,Wocell,Lynn,,Decano Académico,,lwocell,250,Administración
4,Covarrubias,Carlos,,Recursos Humanos,,ccovarrubias,306,Administración
5,Cortez,Olivia,,Decano Académico Asociado,,ocortez,251,Administración
6,Soper,Kelley,,"Salud, Computación y diseño de paginas web, Proyecto de estudiantes de ultimo año",,ksoper,239,Administración
7,Maddox,Bethany,,Consejera,,bmaddox,242,Consejera
8,Santana,Alma,,Gerente de Complimento SIS & CALPADS,,asantana,302,El Personal de Apoyo
9,Franco,Roberto,,Gerente de Asistencia Técnica,,rfranco,201,El Personal de Apoyo
10,Hernandez,Yajaira,,Admisiones,,yhernandez,202,El Personal de Apoyo
11,Castillo,Carol,,Registrador/Asistente de la Oficina,,ccastillo,200,El Personal de Apoyo
12,Zarate,Raquel,,Auxiliar Administrativo,,rzarate,248,El Personal de Apoyo
